commit 820eb339e39c78b16d70d4cb24c0aedca4e496d3
Author: Brandon Hosford <hosfordbrandon@utexas.edu>
Date:   Fri Oct 4 11:13:46 2019 -0500

    Finalization of project in dev branch

commit 282c196ab5df34b46c538ae381589698df944e34
Author: Brandon Hosford <hosfordbrandon@utexas.edu>
Date:   Thu Oct 3 17:36:13 2019 -0500

    testing for pipeline working

commit 922628d1f369d982562e64dbeb118e57ae1e50ab
Merge: 694b128 a91325c
Author: Brandon Hosford <hosfordbrandon@utexas.edu>
Date:   Thu Oct 3 17:26:47 2019 -0500

    Merge branch 'dev' of https://gitlab.com/hosfordbrandon/collatz into dev

commit 694b1281dafa58dfd33844fce9edc4939bb8e8ab
Author: Brandon Hosford <hosfordbrandon@utexas.edu>
Date:   Thu Oct 3 17:26:26 2019 -0500

    changed makefile to include my tests

commit a91325c783799d6a4407f794136d563deb0eb33a
Author: Brandon Hosford <hosfordbrandon@utexas.edu>
Date:   Wed Oct 2 12:22:50 2019 -0500

    successful make test with tests from cs330e-collatz-tests

commit a77d6f71a98d9cd149546fea799931a5e80ba51f
Author: Brandon Hosford <hosfordbrandon@utexas.edu>
Date:   Tue Oct 1 18:45:48 2019 -0500

    Implemented a cache and added unit tests to reflect the added functions

commit f4a8420c825fef51d8840136b62eed91cd15fa29
Author: Brandon Hosford <hosfordbrandon@utexas.edu>
Date:   Tue Oct 1 16:03:49 2019 -0500

    Added more acceptance tests

commit 2446133f9a2c0241f916d40fce5be1effe4e952f
Author: Brandon Hosford <hosfordbrandon@utexas.edu>
Date:   Tue Oct 1 14:29:28 2019 -0500

    Changed RunCollatz.out to expected output. Should fix pipeline error

commit 1e1caf94a2882fac2988abe57cb2d58f33458f6f
Author: Brandon Hosford <hosfordbrandon@utexas.edu>
Date:   Tue Oct 1 14:08:42 2019 -0500

    Should fix pipeline failing

commit 884e15cda01fd17d870a58bb3dbcd06f600bec57
Author: Brandon Hosford <hosfordbrandon@utexas.edu>
Date:   Tue Oct 1 13:54:34 2019 -0500

    implemented collatz_eval in Collatz.py making all unit tests pass with 99% coverage

commit 980a7e4cf2c42d00ced2f074ffae12bc66427a99
Author: Brandon Hosford <hosfordbrandon@utexas.edu>
Date:   Tue Oct 1 12:57:25 2019 -0500

    Added 3 unit tests to each function

commit 887a5bd69f81d1dec0cf3560b8052c8970c19fef
Author: Brandon Hosford <hosfordbrandon@utexas.edu>
Date:   Mon Sep 30 11:43:06 2019 -0500

    Fixed inital unit tests. Confirmed failures

commit 0f4ef1f4eb58a8e6c86f7ef42b30f764a2c76418
Author: Brandon Hosford <hosfordbrandon@utexas.edu>
Date:   Mon Sep 30 11:12:19 2019 -0500

    First commit after running make test

commit 8ea5cf44971147ba2f8d018fc1d1c1aa6a20553a
Author: Fares Fraij <fares@utexas.edu>
Date:   Sat Aug 24 14:27:56 2019 -0700

    first commit

commit a22a10e96b3338d4f58a227b34de8df530861827
Author: Fares Fraij <fares@utexas.edu>
Date:   Sat Aug 24 21:23:21 2019 +0000

    Initial commit
